verify: ihello: check: deadlock: ok
verify: ihello: check: unreachable: ok
verify: ihello: check: livelock: ok
verify: ihello: check: deterministic: ok
verify: queuefull_external2: check: deterministic: ok
verify: queuefull_external2: check: illegal: fail
error: queue full in model queuefull_external2
verify: queuefull_external2: check: deadlock: ok
verify: queuefull_external2: check: unreachable: skip
verify: queuefull_external2: check: livelock: ok
verify: queuefull_external2: check: compliance: skip
