verify: ihello: check: deadlock: ok
verify: ihello: check: unreachable: ok
verify: ihello: check: livelock: ok
verify: ihello: check: deterministic: ok
verify: iworld: check: deadlock: ok
verify: iworld: check: unreachable: ok
verify: iworld: check: livelock: ok
verify: iworld: check: deterministic: ok
verify: illegal_pessimism_external: check: deterministic: ok
verify: illegal_pessimism_external: check: illegal: fail
error: illegal action performed in model illegal_pessimism_external
verify: illegal_pessimism_external: check: deadlock: ok
verify: illegal_pessimism_external: check: unreachable: skip
verify: illegal_pessimism_external: check: livelock: ok
verify: illegal_pessimism_external: check: compliance: skip
