In test/all/parse_preprocessed_imported_bar/bar.dzn:
imported from test/all/parse_preprocessed_imported_bar/foo.dzn:

test/all/parse_preprocessed_imported_bar/bar.dzn:20:1: error
bar
^
`import, dollars, type, namespace, interface, component, EOF' expected
