test/all/compliance_failures_multiple_provides/compliance_failures_multiple_provides.dzn:59:3: error: non-compliance
test/all/compliance_failures_multiple_provides/compliance_failures_multiple_provides.dzn:59:3: component can omit all of: h.world
test/all/compliance_failures_multiple_provides/compliance_failures_multiple_provides.dzn:59:3: the interface promises inevitably: h.world 
