test/all/parse_unknown_enum/parse_unknown_enum.dzn:45:29: error: undefined identifier `ihello.Unknown'
test/all/parse_unknown_enum/parse_unknown_enum.dzn:46:29: error: undefined identifier `ihello.Unknown'
test/all/parse_unknown_enum/parse_unknown_enum.dzn:47:29: error: undefined identifier `ihello.Unknown'
test/all/parse_unknown_enum/parse_unknown_enum.dzn:48:29: error: undefined identifier `ihello.Unknown'
test/all/parse_unknown_enum/parse_unknown_enum.dzn:49:29: error: undefined identifier `ihello.Unknown'
test/all/parse_unknown_enum/parse_unknown_enum.dzn:50:29: error: undefined identifier `ihello.Unknown'
test/all/parse_unknown_enum/parse_unknown_enum.dzn:51:29: error: undefined identifier `ihello.Unknown'
test/all/parse_unknown_enum/parse_unknown_enum.dzn:52:29: error: undefined identifier `ihello.Unknown'
test/all/parse_unknown_enum/parse_unknown_enum.dzn:53:29: error: undefined identifier `ihello.Unknown'
test/all/parse_unknown_enum/parse_unknown_enum.dzn:54:29: error: undefined identifier `ihello.Unknown'
test/all/parse_unknown_enum/parse_unknown_enum.dzn:55:29: error: undefined identifier `ihello.Unknown'
test/all/parse_unknown_enum/parse_unknown_enum.dzn:56:29: error: undefined identifier `ihello.Unknown'
test/all/parse_unknown_enum/parse_unknown_enum.dzn:57:29: error: undefined identifier `ihello.Unknown'
test/all/parse_unknown_enum/parse_unknown_enum.dzn:58:29: error: undefined identifier `ihello.Unknown'
