verify: ihello: check: deadlock: fail
error: reply missing from model ihello
verify: ihello: check: unreachable: skip
verify: ihello: check: livelock: ok
verify: ihello: check: deterministic: ok
verify: missing_reply: check: deterministic: ok
verify: missing_reply: check: illegal: ok
verify: missing_reply: check: deadlock: fail
error: reply missing from model missing_reply
verify: missing_reply: check: unreachable: skip
verify: missing_reply: check: livelock: ok
verify: missing_reply: check: compliance: skip
