verify: ibool: check: deadlock: ok
verify: ibool: check: unreachable: ok
verify: ibool: check: livelock: ok
verify: ibool: check: deterministic: ok
verify: compliance_provides_bool: check: deterministic: ok
verify: compliance_provides_bool: check: illegal: ok
verify: compliance_provides_bool: check: deadlock: ok
verify: compliance_provides_bool: check: unreachable: ok
verify: compliance_provides_bool: check: livelock: ok
verify: compliance_provides_bool: check: compliance: fail
error: component compliance_provides_bool is non-compliant with interface(s) of provides port(s)
