test/all/compliance_provides_out/compliance_provides_out.dzn:44:19: error: non-compliance
test/all/compliance_provides_out/compliance_provides_out.dzn:44:19: component performs: p.cruel
test/all/compliance_provides_out/compliance_provides_out.dzn:34:15: port expects: world
