verify: ihello: check: deadlock: ok
verify: ihello: check: unreachable: ok
verify: ihello: check: livelock: ok
verify: ihello: check: deterministic: ok
verify: iworld: check: deadlock: ok
verify: iworld: check: unreachable: ok
verify: iworld: check: livelock: ok
verify: iworld: check: deterministic: ok
verify: external_blocking_livelock: check: deterministic: ok
verify: external_blocking_livelock: check: illegal: ok
verify: external_blocking_livelock: check: deadlock: ok
verify: external_blocking_livelock: check: unreachable: ok
verify: external_blocking_livelock: check: livelock: ok
verify: external_blocking_livelock: check: livelock: fail
error: livelock in model external_blocking_livelock
verify: external_blocking_livelock: check: compliance: ok
