verify: ihello: check: deadlock: ok
verify: ihello: check: unreachable: ok
verify: ihello: check: livelock: ok
verify: ihello: check: deterministic: ok
verify: compliance0: check: deterministic: ok
verify: compliance0: check: illegal: ok
verify: compliance0: check: deadlock: ok
verify: compliance0: check: unreachable: ok
verify: compliance0: check: livelock: ok
verify: compliance0: check: compliance: fail
error: component compliance0 is non-compliant with interface(s) of provides port(s)
