test/all/compliance_blocking_out/compliance_blocking_out.dzn:52:43: error: non-compliance
test/all/compliance_blocking_out/compliance_blocking_out.dzn:52:43: component performs: h.cruel
test/all/compliance_blocking_out/compliance_blocking_out.dzn:40:15: port expects: world
