verify: i: check: deadlock: ok
verify: i: check: unreachable: ok
verify: i: check: livelock: ok
verify: i: check: deterministic: ok
verify: ii: check: deadlock: ok
verify: ii: check: unreachable: ok
verify: ii: check: livelock: ok
verify: ii: check: deterministic: ok
verify: compliance_livelock: check: deterministic: ok
verify: compliance_livelock: check: illegal: ok
verify: compliance_livelock: check: deadlock: ok
verify: compliance_livelock: check: unreachable: ok
verify: compliance_livelock: check: livelock: ok
verify: compliance_livelock: check: compliance: fail
