verify: ihello: check: deadlock: ok
verify: ihello: check: unreachable: ok
verify: ihello: check: livelock: ok
verify: ihello: check: deterministic: ok
verify: iworld: check: deadlock: ok
verify: iworld: check: unreachable: ok
verify: iworld: check: livelock: ok
verify: iworld: check: deterministic: ok
verify: livelock_component: check: deterministic: ok
verify: livelock_component: check: illegal: ok
verify: livelock_component: check: deadlock: ok
verify: livelock_component: check: unreachable: ok
verify: livelock_component: check: livelock: fail
error: livelock in model livelock_component
verify: livelock_component: check: compliance: ok
