verify: ihello: check: deadlock: ok
verify: ihello: check: unreachable: ok
verify: ihello: check: livelock: ok
verify: ihello: check: deterministic: ok
verify: compliance_requires_illegal: check: deterministic: ok
verify: compliance_requires_illegal: check: illegal: fail
error: illegal action performed in model compliance_requires_illegal
verify: compliance_requires_illegal: check: deadlock: ok
verify: compliance_requires_illegal: check: unreachable: skip
verify: compliance_requires_illegal: check: livelock: ok
verify: compliance_requires_illegal: check: compliance: skip
