verify: ihello: check: deadlock: ok
verify: ihello: check: unreachable: ok
verify: ihello: check: livelock: ok
verify: ihello: check: deterministic: ok
verify: compliance_failures_blocking: check: deterministic: ok
verify: compliance_failures_blocking: check: illegal: ok
verify: compliance_failures_blocking: check: deadlock: ok
verify: compliance_failures_blocking: check: unreachable: ok
verify: compliance_failures_blocking: check: livelock: ok
verify: compliance_failures_blocking: check: compliance: fail
error: component compliance_failures_blocking is non-compliant with interface(s) of provides port(s)
