verify: ihello: check: deadlock: ok
verify: ihello: check: unreachable: ok
verify: ihello: check: livelock: ok
verify: ihello: check: deterministic: ok
verify: defer_calls: check: deterministic: ok
verify: defer_calls: check: illegal: ok
verify: defer_calls: check: deadlock: fail
error: deadlock in model defer_calls
verify: defer_calls: check: unreachable: skip
verify: defer_calls: check: livelock: ok
verify: defer_calls: check: compliance: skip
