test/all/compliance_out_sync/compliance_out_sync.dzn:43:5: error: non-compliance
test/all/compliance_out_sync/compliance_out_sync.dzn:43:5: component performs: h.return
test/all/compliance_out_sync/compliance_out_sync.dzn:32:15: port expects: world
