verify: ihello: check: deadlock: ok
verify: ihello: check: unreachable: ok
verify: ihello: check: livelock: ok
verify: ihello: check: deterministic: ok
verify: iworld: check: deadlock: ok
verify: iworld: check: unreachable: ok
verify: iworld: check: livelock: ok
verify: iworld: check: deterministic: ok
verify: compliance_fork_lookup: check: deterministic: ok
verify: compliance_fork_lookup: check: illegal: ok
verify: compliance_fork_lookup: check: deadlock: ok
verify: compliance_fork_lookup: check: unreachable: ok
verify: compliance_fork_lookup: check: livelock: ok
verify: compliance_fork_lookup: check: compliance: fail
error: component compliance_fork_lookup is non-compliant with interface(s) of provides port(s)
