test/all/deadlock_blocking_compliance/deadlock_blocking_compliance.dzn:47:28: error: non-compliance
test/all/deadlock_blocking_compliance/deadlock_blocking_compliance.dzn:47:28: component performs: h.world
test/all/deadlock_blocking_compliance/deadlock_blocking_compliance.dzn:35:11: port expects: return
