verify: I: check: deadlock: ok
verify: I: check: unreachable: ok
verify: I: check: livelock: ok
verify: I: check: deterministic: ok
verify: II: check: deadlock: ok
verify: II: check: unreachable: ok
verify: II: check: livelock: ok
verify: II: check: deterministic: ok
verify: deadlock_blocking_optional: check: deterministic: ok
verify: deadlock_blocking_optional: check: illegal: ok
verify: deadlock_blocking_optional: check: deadlock: fail
error: deadlock in model deadlock_blocking_optional
verify: deadlock_blocking_optional: check: unreachable: skip
verify: deadlock_blocking_optional: check: livelock: ok
verify: deadlock_blocking_optional: check: compliance: skip
