test/all/wf_assignmentExpressionNotInEventInstance/wf_assignmentExpressionNotInEventInstance.dzn:41:44: error
      Sensor.Status s2 = sensor2.activate(b <- l);
                                           ^
                                           `comma' expected
