verify: ihello: check: deadlock: ok
verify: ihello: check: unreachable: ok
verify: ihello: check: livelock: ok
verify: ihello: check: deterministic: ok
verify: iworld: check: deadlock: ok
verify: iworld: check: unreachable: ok
verify: iworld: check: livelock: ok
verify: iworld: check: deterministic: ok
verify: compliance_failures_choice: check: deterministic: ok
verify: compliance_failures_choice: check: illegal: ok
verify: compliance_failures_choice: check: deadlock: ok
verify: compliance_failures_choice: check: unreachable: ok
verify: compliance_failures_choice: check: livelock: ok
verify: compliance_failures_choice: check: compliance: fail
error: component compliance_failures_choice is non-compliant with interface(s) of provides port(s)
